{
    "KPlugin": {
        "Category": "Appearance",
        "Description": "Display window thumbnails on the edge of the screen",
        "Description[ar]": "اعرض مصغّرات النوافذ في حافة الشاشة",
        "Description[az]": "Ekranın kənarında miniatür pəncərəsini göstərir",
        "Description[bg]": "Показване на миниатюри на прозореца в края на екрана",
        "Description[ca@valencia]": "Mostra les miniatures de les finestres a la vora de la pantalla",
        "Description[ca]": "Mostra les miniatures de les finestres a la vora de la pantalla",
        "Description[cs]": "Zobrazuje náhledy oken na okraji obrazovky",
        "Description[de]": "Zeigt Vorschaubilder von Fenstern an einem Bildschirmrand an",
        "Description[en_GB]": "Display window thumbnails on the edge of the screen",
        "Description[es]": "Mostrar miniaturas de las ventanas en el borde de la pantalla",
        "Description[et]": "Ekraani serval näidatakse akende pisipilte",
        "Description[eu]": "Bistaratu leihoen koadro txikiak pantailaren ertzean",
        "Description[fi]": "Näytä ikkunoiden pienoiskuvat näytön reunalla",
        "Description[fr]": "Afficher les vignettes de fenêtres sur le bord de l'écran",
        "Description[hu]": "A képernyő szélénél megjelennek az ablakok kicsinyített képei",
        "Description[ia]": "Monstra miniaturas de fenestra al margine del schermo",
        "Description[id]": "Tampilan thumbnail jendela di tepian layar",
        "Description[it]": "Visualizza anteprime delle finestre sul bordo delle schermo",
        "Description[ja]": "スクリーンの角にウィンドウのサムネイルを表示します",
        "Description[ko]": "화면 모서리에 창의 축소판을 표시합니다",
        "Description[nl]": "Toont vensterminiaturen langs de rand van het scherm",
        "Description[nn]": "Vis miniatyrbilete av vindauge ved kanten av skjermen",
        "Description[pl]": "Wyświetla miniatury okien na krawędzi ekranu",
        "Description[pt]": "Mostrar miniaturas das janelas no extremo do ecrã",
        "Description[pt_BR]": "Mostra as miniaturas das janelas no canto da tela",
        "Description[ro]": "Afișează miniaturile ferestrelor la marginea ecranului",
        "Description[ru]": "Отображение миниатюр окон на краю экрана",
        "Description[sk]": "Zobrazí náhľady okien na okraji obrazovky",
        "Description[sl]": "Prikažite predogledne sličice oken na robu zaslona",
        "Description[sv]": "Visa miniatyrbilder av fönster vid skärmkanten",
        "Description[ta]": "திரையின் ஓரத்தில் சிறுபடங்களை காட்டும்",
        "Description[tr]": "Pencere küçük görsellerini ekranın kenarında görüntüle",
        "Description[uk]": "Показ мініатюр вікон при наведенні на край екрана",
        "Description[vi]": "Hiển thị các hình nhỏ cửa sổ ở cạnh màn hình",
        "Description[x-test]": "xxDisplay window thumbnails on the edge of the screenxx",
        "Description[zh_CN]": "在屏幕边缘显示窗口的缩略图",
        "Description[zh_TW]": "在螢幕邊緣顯示視窗縮圖",
        "EnabledByDefault": false,
        "Id": "thumbnailaside",
        "License": "GPL",
        "Name": "Thumbnail Aside",
        "Name[ar]": "مصغرات على الجانب",
        "Name[az]": "Yandakı miniatür pəncərəsi",
        "Name[bg]": "Миниатюра встрани",
        "Name[ca@valencia]": "Miniatures al costat",
        "Name[ca]": "Miniatures al costat",
        "Name[cs]": "Postranní miniatura",
        "Name[de]": "Seitliche Vorschaubilder",
        "Name[en_GB]": "Thumbnail Aside",
        "Name[es]": "Miniaturas a un lado",
        "Name[et]": "Pisipildid kõrval",
        "Name[eu]": "Koadro txikiak alboan",
        "Name[fi]": "Esikatselukuva vieressä",
        "Name[fr]": "Vignettes sur le côté",
        "Name[hu]": "Ablakbetekintő oldal",
        "Name[ia]": "Miniatura a parte",
        "Name[id]": "Thumbnail Aside",
        "Name[it]": "Miniature a fianco",
        "Name[ja]": "サムネイルをわきに",
        "Name[ka]": "მინიატურა გვერდითვე",
        "Name[ko]": "옆쪽에 축소판",
        "Name[nl]": "Miniatuur ernaast",
        "Name[nn]": "Miniatyrbilete ved skjermkanten",
        "Name[pl]": "Miniatura z boku",
        "Name[pt]": "Miniaturas Lado-a-Lado",
        "Name[pt_BR]": "Miniatura de lado",
        "Name[ro]": "Miniatură lateral",
        "Name[ru]": "Миниатюры окон сбоку",
        "Name[sk]": "Bočný náhľad",
        "Name[sl]": "Predogledno sličico na stran",
        "Name[sv]": "Miniatyrbild vid sidan om",
        "Name[ta]": "ஓரத்தில் சிறுபடம்",
        "Name[tr]": "Küçük Görsel Kenarda",
        "Name[uk]": "Мініатюри збоку",
        "Name[vi]": "Hình nhỏ ở cạnh",
        "Name[x-test]": "xxThumbnail Asidexx",
        "Name[zh_CN]": "缩略图置边",
        "Name[zh_TW]": "在一旁的縮圖"
    },
    "X-KDE-ConfigModule": "kwin_thumbnailaside_config"
}
